<?xml version="1.0" encoding="UTF-8" standalone="no"?>
<!-- Created with Inkscape (http://www.inkscape.org/) -->

<svg
   xmlns:dc="http://purl.org/dc/elements/1.1/"
   xmlns:cc="http://creativecommons.org/ns#"
   xmlns:rdf="http://www.w3.org/1999/02/22-rdf-syntax-ns#"
   xmlns:svg="http://www.w3.org/2000/svg"
   xmlns="http://www.w3.org/2000/svg"
   xmlns:xlink="http://www.w3.org/1999/xlink"
   xmlns:sodipodi="http://sodipodi.sourceforge.net/DTD/sodipodi-0.dtd"
   xmlns:inkscape="http://www.inkscape.org/namespaces/inkscape"
   width="210mm"
   height="297mm"
   viewBox="0 0 210 297"
   version="1.1"
   id="svg8"
   inkscape:version="0.92.2 (5c3e80d, 2017-08-06)"
   sodipodi:docname="missionSprites.svg">
  <defs
     id="defs2">
    <linearGradient
       inkscape:collect="always"
       id="linearGradient5989">
      <stop
         style="stop-color:#00ffff;stop-opacity:1"
         offset="0"
         id="stop5985" />
      <stop
         style="stop-color:#006eff;stop-opacity:1"
         offset="1"
         id="stop5987" />
    </linearGradient>
    <radialGradient
       inkscape:collect="always"
       xlink:href="#linearGradient5989"
       id="radialGradient5993"
       cx="-168.83929"
       cy="86.130951"
       fx="-168.83929"
       fy="86.130951"
       r="160"
       gradientTransform="matrix(1,0,0,0.5625,704.31677,344.15673)"
       gradientUnits="userSpaceOnUse" />
    <radialGradient
       inkscape:collect="always"
       xlink:href="#linearGradient5989"
       id="radialGradient5993-3"
       cx="-168.83929"
       cy="86.130951"
       fx="-168.83929"
       fy="86.130951"
       r="160"
       gradientTransform="matrix(1,0,0,0.56250001,1165.1845,429.97989)"
       gradientUnits="userSpaceOnUse" />
    <radialGradient
       inkscape:collect="always"
       xlink:href="#linearGradient5989"
       id="radialGradient5993-0"
       cx="-168.83929"
       cy="86.130951"
       fx="-168.83929"
       fy="86.130951"
       r="160"
       gradientTransform="matrix(1,0,0,0.56250001,505.99406,714.21799)"
       gradientUnits="userSpaceOnUse" />
    <radialGradient
       inkscape:collect="always"
       xlink:href="#linearGradient5989"
       id="radialGradient5993-08"
       cx="-168.83929"
       cy="86.130951"
       fx="-168.83929"
       fy="86.130951"
       r="160"
       gradientTransform="matrix(1,0,0,0.56250001,968.63692,782.2537)"
       gradientUnits="userSpaceOnUse" />
    <radialGradient
       inkscape:collect="always"
       xlink:href="#linearGradient5989"
       id="radialGradient5993-6"
       cx="-168.83929"
       cy="86.130951"
       fx="-168.83929"
       fy="86.130951"
       r="160"
       gradientTransform="matrix(1,0,0,0.56250001,574.02978,1018.1108)"
       gradientUnits="userSpaceOnUse" />
    <radialGradient
       inkscape:collect="always"
       xlink:href="#linearGradient5989"
       id="radialGradient5993-6-6"
       cx="-168.83929"
       cy="86.130951"
       fx="-168.83929"
       fy="86.130951"
       r="160"
       gradientTransform="matrix(1,0,0,0.56250001,1158.8056,1131.6098)"
       gradientUnits="userSpaceOnUse" />
    <radialGradient
       inkscape:collect="always"
       xlink:href="#linearGradient5989"
       id="radialGradient5993-6-61"
       cx="-168.83929"
       cy="86.130951"
       fx="-168.83929"
       fy="86.130951"
       r="160"
       gradientTransform="matrix(1,0,0,0.56250001,1605.6803,757.43248)"
       gradientUnits="userSpaceOnUse" />
    <radialGradient
       inkscape:collect="always"
       xlink:href="#linearGradient5989"
       id="radialGradient5993-6-5"
       cx="-168.83929"
       cy="86.130951"
       fx="-168.83929"
       fy="86.130951"
       r="160"
       gradientTransform="matrix(1,0,0,0.56250001,1528.7067,1356.1162)"
       gradientUnits="userSpaceOnUse" />
    <radialGradient
       inkscape:collect="always"
       xlink:href="#linearGradient5989"
       id="radialGradient5993-6-9"
       cx="-168.83929"
       cy="86.130951"
       fx="-168.83929"
       fy="86.130951"
       r="160"
       gradientTransform="matrix(1,0,0,0.56250001,829.52957,1535.7213)"
       gradientUnits="userSpaceOnUse" />
    <radialGradient
       inkscape:collect="always"
       xlink:href="#linearGradient5989"
       id="radialGradient5993-6-97"
       cx="-168.83929"
       cy="86.130951"
       fx="-168.83929"
       fy="86.130951"
       r="160"
       gradientTransform="matrix(1,0,0,0.56250001,239.39846,1507.9253)"
       gradientUnits="userSpaceOnUse" />
    <radialGradient
       inkscape:collect="always"
       xlink:href="#linearGradient5989"
       id="radialGradient5993-6-2"
       cx="-168.83929"
       cy="86.130951"
       fx="-168.83929"
       fy="86.130951"
       r="160"
       gradientTransform="matrix(1,0,0,0.56250001,-4.3513536,1140.1624)"
       gradientUnits="userSpaceOnUse" />
  </defs>
  <sodipodi:namedview
     id="base"
     pagecolor="#ffffff"
     bordercolor="#666666"
     borderopacity="1.0"
     inkscape:pageopacity="0.0"
     inkscape:pageshadow="2"
     inkscape:zoom="0.061871845"
     inkscape:cx="26324.775"
     inkscape:cy="-2158.7067"
     inkscape:document-units="mm"
     inkscape:current-layer="layer1"
     showgrid="false"
     inkscape:window-width="1600"
     inkscape:window-height="838"
     inkscape:window-x="-8"
     inkscape:window-y="-8"
     inkscape:window-maximized="1" />
  <metadata
     id="metadata5">
    <rdf:RDF>
      <cc:Work
         rdf:about="">
        <dc:format>image/svg+xml</dc:format>
        <dc:type
           rdf:resource="http://purl.org/dc/dcmitype/StillImage" />
        <dc:title />
      </cc:Work>
    </rdf:RDF>
  </metadata>
  <g
     inkscape:label="Layer 1"
     inkscape:groupmode="layer"
     id="layer1">
    <rect
       style="fill:url(#radialGradient5993);fill-opacity:1;stroke-width:0.26458332"
       id="rect10"
       width="320"
       height="180"
       x="375.47748"
       y="302.60541" />
    <text
       xml:space="preserve"
       style="font-style:normal;font-weight:normal;font-size:50.79999924px;line-height:1.25;font-family:sans-serif;letter-spacing:0px;word-spacing:0px;fill:#000000;fill-opacity:1;stroke:none;stroke-width:0.26458332"
       x="518.58551"
       y="411.13452"
       id="text5997"><tspan
         sodipodi:role="line"
         id="tspan5995"
         x="518.58551"
         y="411.13452"
         style="font-size:50.79999924px;stroke-width:0.26458332">1</tspan></text>
    <rect
       style="fill:url(#radialGradient5993-3);fill-opacity:1;stroke-width:0.26458332"
       id="rect10-5"
       width="320"
       height="180"
       x="836.34521"
       y="388.42856" />
    <text
       xml:space="preserve"
       style="font-style:normal;font-weight:normal;font-size:50.79999924px;line-height:1.25;font-family:sans-serif;letter-spacing:0px;word-spacing:0px;fill:#000000;fill-opacity:1;stroke:none;stroke-width:0.26458332"
       x="979.45325"
       y="496.95767"
       id="text5997-5"><tspan
         sodipodi:role="line"
         id="tspan5995-9"
         x="979.45325"
         y="496.95767"
         style="font-size:50.79999924px;stroke-width:0.26458332">2</tspan></text>
    <rect
       style="fill:url(#radialGradient5993-0);fill-opacity:1;stroke-width:0.26458332"
       id="rect10-9"
       width="320"
       height="180"
       x="177.15475"
       y="672.66669" />
    <text
       xml:space="preserve"
       style="font-style:normal;font-weight:normal;font-size:50.79999924px;line-height:1.25;font-family:sans-serif;letter-spacing:0px;word-spacing:0px;fill:#000000;fill-opacity:1;stroke:none;stroke-width:0.26458332"
       x="320.26279"
       y="781.1958"
       id="text5997-1"><tspan
         sodipodi:role="line"
         id="tspan5995-2"
         x="320.26279"
         y="781.1958"
         style="font-size:50.79999924px;stroke-width:0.26458332">3</tspan></text>
    <rect
       style="fill:url(#radialGradient5993-08);fill-opacity:1;stroke-width:0.26458332"
       id="rect10-94"
       width="320"
       height="180"
       x="639.79761"
       y="740.70239" />
    <text
       xml:space="preserve"
       style="font-style:normal;font-weight:normal;font-size:50.79999924px;line-height:1.25;font-family:sans-serif;letter-spacing:0px;word-spacing:0px;fill:#000000;fill-opacity:1;stroke:none;stroke-width:0.26458332"
       x="782.90564"
       y="849.23151"
       id="text5997-4"><tspan
         sodipodi:role="line"
         id="tspan5995-27"
         x="782.90564"
         y="849.23151"
         style="font-size:50.79999924px;stroke-width:0.26458332">4</tspan></text>
    <rect
       style="fill:url(#radialGradient5993-6);fill-opacity:1;stroke-width:0.26458332"
       id="rect10-97"
       width="320"
       height="180"
       x="245.19048"
       y="976.55951" />
    <text
       xml:space="preserve"
       style="font-style:normal;font-weight:normal;font-size:50.79999924px;line-height:1.25;font-family:sans-serif;letter-spacing:0px;word-spacing:0px;fill:#000000;fill-opacity:1;stroke:none;stroke-width:0.26458332"
       x="388.29852"
       y="1085.0886"
       id="text5997-7"><tspan
         sodipodi:role="line"
         id="tspan5995-8"
         x="388.29852"
         y="1085.0886"
         style="font-size:50.79999924px;stroke-width:0.26458332">7</tspan></text>
    <rect
       style="fill:url(#radialGradient5993-6-6);fill-opacity:1;stroke-width:0.26458332"
       id="rect10-97-3"
       width="320"
       height="180"
       x="829.96631"
       y="1090.0585" />
    <text
       xml:space="preserve"
       style="font-style:normal;font-weight:normal;font-size:50.79999924px;line-height:1.25;font-family:sans-serif;letter-spacing:0px;word-spacing:0px;fill:#000000;fill-opacity:1;stroke:none;stroke-width:0.26458332"
       x="973.0744"
       y="1198.5876"
       id="text5997-7-8"><tspan
         sodipodi:role="line"
         id="tspan5995-8-4"
         x="973.0744"
         y="1198.5876"
         style="font-size:50.79999924px;stroke-width:0.26458332">8</tspan></text>
    <rect
       style="fill:url(#radialGradient5993-6-61);fill-opacity:1;stroke-width:0.26458332"
       id="rect10-97-4"
       width="320"
       height="180"
       x="1276.8409"
       y="715.88116" />
    <text
       xml:space="preserve"
       style="font-style:normal;font-weight:normal;font-size:50.79999924px;line-height:1.25;font-family:sans-serif;letter-spacing:0px;word-spacing:0px;fill:#000000;fill-opacity:1;stroke:none;stroke-width:0.26458332"
       x="1419.949"
       y="824.41028"
       id="text5997-7-3"><tspan
         sodipodi:role="line"
         id="tspan5995-8-1"
         x="1419.949"
         y="824.41028"
         style="font-size:50.79999924px;stroke-width:0.26458332">5</tspan></text>
    <rect
       style="fill:url(#radialGradient5993-6-5);fill-opacity:1;stroke-width:0.26458332"
       id="rect10-97-36"
       width="320"
       height="180"
       x="1199.8673"
       y="1314.5649" />
    <text
       xml:space="preserve"
       style="font-style:normal;font-weight:normal;font-size:50.79999924px;line-height:1.25;font-family:sans-serif;letter-spacing:0px;word-spacing:0px;fill:#000000;fill-opacity:1;stroke:none;stroke-width:0.26458332"
       x="1342.9753"
       y="1423.094"
       id="text5997-7-9"><tspan
         sodipodi:role="line"
         id="tspan5995-8-3"
         x="1342.9753"
         y="1423.094"
         style="font-size:50.79999924px;stroke-width:0.26458332">1</tspan></text>
    <rect
       style="fill:url(#radialGradient5993-6-9);fill-opacity:1;stroke-width:0.26458332"
       id="rect10-97-7"
       width="320"
       height="180"
       x="500.69028"
       y="1494.17" />
    <text
       xml:space="preserve"
       style="font-style:normal;font-weight:normal;font-size:50.79999924px;line-height:1.25;font-family:sans-serif;letter-spacing:0px;word-spacing:0px;fill:#000000;fill-opacity:1;stroke:none;stroke-width:0.26458332"
       x="643.79834"
       y="1602.6991"
       id="text5997-7-91"><tspan
         sodipodi:role="line"
         id="tspan5995-8-2"
         x="643.79834"
         y="1602.6991"
         style="font-size:50.79999924px;stroke-width:0.26458332">10</tspan></text>
    <rect
       style="fill:url(#radialGradient5993-6-97);fill-opacity:1;stroke-width:0.26458332"
       id="rect10-97-9"
       width="320"
       height="180"
       x="-89.440842"
       y="1466.374" />
    <text
       xml:space="preserve"
       style="font-style:normal;font-weight:normal;font-size:50.79999924px;line-height:1.25;font-family:sans-serif;letter-spacing:0px;word-spacing:0px;fill:#000000;fill-opacity:1;stroke:none;stroke-width:0.26458332"
       x="53.667202"
       y="1574.9031"
       id="text5997-7-5"><tspan
         sodipodi:role="line"
         id="tspan5995-8-42"
         x="53.667202"
         y="1574.9031"
         style="font-size:50.79999924px;stroke-width:0.26458332">9</tspan></text>
    <rect
       style="fill:url(#radialGradient5993-6-2);fill-opacity:1;stroke-width:0.26458332"
       id="rect10-97-37"
       width="320"
       height="180"
       x="-333.19064"
       y="1098.6111" />
    <text
       xml:space="preserve"
       style="font-style:normal;font-weight:normal;font-size:50.79999924px;line-height:1.25;font-family:sans-serif;letter-spacing:0px;word-spacing:0px;fill:#000000;fill-opacity:1;stroke:none;stroke-width:0.26458332"
       x="-190.08261"
       y="1207.1403"
       id="text5997-7-7"><tspan
         sodipodi:role="line"
         id="tspan5995-8-31"
         x="-190.08261"
         y="1207.1403"
         style="font-size:50.79999924px;stroke-width:0.26458332">6</tspan></text>
    <ellipse
       style="fill:#0000ff;stroke-width:0.26458332"
       id="path54"
       cx="-549.5061"
       cy="138.77644"
       rx="91.940712"
       ry="117.59859" />
    <circle
       style="fill:#0000ff;stroke-width:0.26458332"
       id="path56"
       cx="-540.95349"
       cy="162.29619"
       r="98.355179" />
    <path
       style="fill:none;stroke:#000000;stroke-width:0.26458332px;stroke-linecap:butt;stroke-linejoin:miter;stroke-opacity:1"
       d="m -239.47349,368.62822 c 13.71293,-17.71997 8.8026,-91.79914 -7.48355,-103.70056 -27.79603,-20.31248 -64.14468,-130.42753 -76.97361,14.96709 -12.82893,145.39462 70.74424,106.45344 84.45716,88.73347 z"
       id="path58"
       inkscape:connector-curvature="0"
       sodipodi:nodetypes="zszz" />
    <path
       style="fill:#ffffff;stroke:#000000;stroke-width:9;stroke-linecap:butt;stroke-linejoin:miter;stroke-miterlimit:4;stroke-dasharray:none;stroke-opacity:1"
       d="m 436.50691,-24.872137 c 13.71293,-17.71997 8.8026,-91.799143 -7.48355,-103.700563 -27.79603,-20.31248 -64.14468,-130.42754 -76.97361,14.96709 -12.82893,145.394623 70.74424,106.4534427 84.45716,88.733473 z"
       id="path58-1"
       inkscape:connector-curvature="0"
       sodipodi:nodetypes="zszz" />
    <circle
       style="fill:#1a1a1a;stroke-width:9;stroke-miterlimit:4;stroke-dasharray:none"
       id="path892"
       cx="415.87137"
       cy="-340.17053"
       r="32.072342" />
    <ellipse
       style="fill:#1a1a1a;stroke-width:10.71214294;stroke-miterlimit:4;stroke-dasharray:none"
       id="path892-3"
       cx="537.74628"
       cy="-344.98138"
       rx="32.072342"
       ry="45.435818" />
    <ellipse
       style="fill:#1a1a1a;stroke-width:10.71214294;stroke-miterlimit:4;stroke-dasharray:none"
       id="path892-3-0"
       cx="723.53113"
       cy="174.34018"
       rx="32.072342"
       ry="45.435818"
       transform="rotate(-41.488671)" />
    <ellipse
       style="fill:#1a1a1a;stroke-width:7.18592405;stroke-miterlimit:4;stroke-dasharray:none"
       id="path892-3-1"
       cx="758.51093"
       cy="-346.58502"
       rx="14.432553"
       ry="45.435818" />
    <ellipse
       style="fill:#1a1a1a;stroke-width:7.18592453;stroke-miterlimit:4;stroke-dasharray:none"
       id="path892-3-1-2"
       cx="345.51593"
       cy="847.77893"
       rx="14.432553"
       ry="45.435818"
       transform="rotate(-90)" />
    <path
       style="fill:#ffffff;stroke:#000000;stroke-width:9;stroke-linecap:butt;stroke-linejoin:miter;stroke-miterlimit:4;stroke-dasharray:none;stroke-opacity:1"
       d="m 503.11376,-24.217406 c -13.71294,-17.71997 -8.8026,-91.799154 7.48354,-103.700574 27.79604,-20.31248 64.14469,-130.42754 76.97362,14.96709 12.82893,145.394634 -70.74424,106.4534537 -84.45716,88.733484 z"
       id="path58-1-6"
       inkscape:connector-curvature="0"
       sodipodi:nodetypes="zszz" />
    <path
       style="fill:#ffffff;stroke:#000000;stroke-width:9;stroke-linecap:butt;stroke-linejoin:miter;stroke-miterlimit:4;stroke-dasharray:none;stroke-opacity:1"
       d="m 796.18368,-27.015632 c -15.46135,-16.216924 -43.84772,-83.994048 -28.87087,-97.506128 25.56143,-23.06143 76.05939,-142.74338 103.76206,0.56309 27.70268,143.306466 -59.42986,113.159965 -74.89119,96.943038 z"
       id="path58-1-6-3"
       inkscape:connector-curvature="0"
       sodipodi:nodetypes="zszz" />
    <path
       style="fill:#ffffff;stroke:#000000;stroke-width:9;stroke-linecap:butt;stroke-linejoin:miter;stroke-miterlimit:4;stroke-dasharray:none;stroke-opacity:1"
       d="m 707.79239,-31.120488 c 15.46135,-16.21692 43.84772,-83.994042 28.87087,-97.506132 -25.56143,-23.06143 -76.05939,-142.74338 -103.76206,0.56309 -27.70268,143.306472 59.42986,113.159972 74.89119,96.943042 z"
       id="path58-1-6-3-7"
       inkscape:connector-curvature="0"
       sodipodi:nodetypes="zszz" />
    <path
       style="fill:#ffffff;stroke:#000000;stroke-width:9;stroke-linecap:butt;stroke-linejoin:miter;stroke-miterlimit:4;stroke-dasharray:none;stroke-opacity:1"
       d="m 1045.6211,-55.709279 c 28.9214,-45.433431 14.1644,-60.247431 28.8708,-97.506141 4.5846,-11.61514 -39.4428,-82.7616 -53.7763,-99.20658 -25.18384,-28.89348 -32.33126,8.44272 -49.98573,99.76967 -27.70267,143.3064829 60.05183,120.254748 74.89123,96.943051 z"
       id="path58-1-6-3-7-1"
       inkscape:connector-curvature="0"
       sodipodi:nodetypes="sssss" />
    <path
       style="fill:#ffffff;stroke:#000000;stroke-width:9;stroke-linecap:butt;stroke-linejoin:miter;stroke-miterlimit:4;stroke-dasharray:none;stroke-opacity:1"
       d="m 1134.4616,-53.274406 c -28.9214,-45.43343 -14.1644,-60.247434 -28.8708,-97.506134 -4.5846,-11.61514 39.4428,-82.7616 53.7763,-99.20658 25.1839,-28.89348 32.3313,8.44272 49.9858,99.76967 27.7026,143.306474 -60.0519,120.254744 -74.8913,96.943044 z"
       id="path58-1-6-3-7-1-8"
       inkscape:connector-curvature="0"
       sodipodi:nodetypes="sssss" />
    <path
       style="fill:#ffffff;stroke:#000000;stroke-width:9;stroke-linecap:butt;stroke-linejoin:miter;stroke-miterlimit:4;stroke-dasharray:none;stroke-opacity:1"
       d="m 1334.3792,-12.649435 c -28.9214,-45.43344 17.6858,-83.861906 14.9614,-108.196925 -4.8452,-43.2789 -0.5334,-60.25213 38.8092,-60.71977 21.88,-0.26006 35.0187,68.76641 35.0187,68.76641 41.0989,140.053763 -73.9499,123.461975 -88.7893,100.150285 z"
       id="path58-1-6-3-7-1-8-3"
       inkscape:connector-curvature="0"
       sodipodi:nodetypes="sssss" />
    <path
       style="fill:#ffffff;stroke:#000000;stroke-width:9;stroke-linecap:butt;stroke-linejoin:miter;stroke-miterlimit:4;stroke-dasharray:none;stroke-opacity:1"
       d="m 1578.6966,-11.874008 c 28.9214,-45.43344 -17.6858,-83.861907 -14.9615,-108.196932 4.8452,-43.2789 0.5334,-60.25213 -38.8092,-60.71977 -21.88,-0.26006 -35.0187,68.76641 -35.0187,68.76641 -41.0988,140.053769 73.9499,123.461982 88.7894,100.150292 z"
       id="path58-1-6-3-7-1-8-3-1"
       inkscape:connector-curvature="0"
       sodipodi:nodetypes="sssss" />
    <path
       style="fill:#ffffff;stroke:#000000;stroke-width:9;stroke-linecap:butt;stroke-linejoin:miter;stroke-miterlimit:4;stroke-dasharray:none;stroke-opacity:1"
       d="M 587.04689,171.8677 C 606.80555,121.76539 553.74389,92.896073 551.79317,68.486855 548.32404,25.075978 540.86475,9.2317014 502.15045,16.250419 480.61988,20.153823 480.84053,90.419252 480.84053,90.419252 467.1109,235.73156 576.90875,197.57497 587.04689,171.8677 Z"
       id="path58-1-6-3-7-1-8-3-1-0"
       inkscape:connector-curvature="0"
       sodipodi:nodetypes="sssss" />
    <path
       style="fill:#ffffff;stroke:#000000;stroke-width:9;stroke-linecap:butt;stroke-linejoin:miter;stroke-miterlimit:4;stroke-dasharray:none;stroke-opacity:1"
       d="m 341.55837,174.37288 c -19.75866,-50.10231 33.303,-78.971629 35.25372,-103.380847 3.46913,-43.410876 10.92842,-59.255154 49.64272,-52.236436 21.53057,3.903404 21.30992,74.168836 21.30992,74.168836 13.72963,145.312307 -96.06822,107.155717 -106.20636,81.448447 z"
       id="path58-1-6-3-7-1-8-3-1-0-2"
       inkscape:connector-curvature="0"
       sodipodi:nodetypes="sssss" />
    <path
       style="fill:#ffffff;stroke:#000000;stroke-width:9;stroke-linecap:round;stroke-linejoin:round;stroke-miterlimit:4;stroke-dasharray:none;stroke-opacity:1"
       d="M 873.29786,137.62534 C 869.79679,83.881601 796.1457,87.896484 772.33338,93.605128 731.64197,103.36028 695.6981,78.668566 649.16,94.360563 c 18.51036,29.290757 95.52583,63.834367 95.52583,63.834367 78.00813,30.02438 131.04146,16.72365 128.61203,-20.56959 z"
       id="path58-1-6-3-7-1-8-3-1-0-4"
       inkscape:connector-curvature="0"
       sodipodi:nodetypes="ssccs" />
    <path
       style="fill:#ffffff;stroke:#000000;stroke-width:9;stroke-linecap:round;stroke-linejoin:round;stroke-miterlimit:4;stroke-dasharray:none;stroke-opacity:1"
       d="m 897.17913,131.70537 c 3.5011,-53.74374 77.1522,-49.728854 100.9645,-44.020214 40.69137,9.75515 76.63527,-14.936561 123.17337,0.75544 -18.5104,29.290754 -95.5258,63.834364 -95.5258,63.834364 -78.00817,30.02438 -131.04147,16.72365 -128.61207,-20.56959 z"
       id="path58-1-6-3-7-1-8-3-1-0-4-0"
       inkscape:connector-curvature="0"
       sodipodi:nodetypes="ssccs" />
    <path
       style="fill:#ffffff;stroke:#000000;stroke-width:9;stroke-linecap:round;stroke-linejoin:round;stroke-miterlimit:4;stroke-dasharray:none;stroke-opacity:1"
       d="m 1403.9887,121.85567 c 14.2523,-51.937655 85.586,-33.173199 107.7609,-22.786199 37.8932,17.749719 78.0732,0.80223 120.4978,25.544579 -24.0297,24.96307 -106.4237,43.28966 -106.4237,43.28966 -82.4564,13.70001 -131.7247,-10.00805 -121.835,-46.04804 z"
       id="path58-1-6-3-7-1-8-3-1-0-4-0-7"
       inkscape:connector-curvature="0"
       sodipodi:nodetypes="ssccs" />
    <path
       style="fill:#ffffff;stroke:#000000;stroke-width:9;stroke-linecap:round;stroke-linejoin:round;stroke-miterlimit:4;stroke-dasharray:none;stroke-opacity:1"
       d="m 1375.0286,119.40824 c -14.2523,-51.937659 -85.586,-33.173203 -107.7609,-22.786202 -37.8932,17.749722 -78.0732,0.80223 -120.4978,25.544582 24.0297,24.96307 106.4237,43.28966 106.4237,43.28966 82.4564,13.70001 131.7247,-10.00805 121.835,-46.04804 z"
       id="path58-1-6-3-7-1-8-3-1-0-4-0-7-9"
       inkscape:connector-curvature="0"
       sodipodi:nodetypes="ssccs" />
    <path
       style="fill:#ffffff;stroke:#000000;stroke-width:9;stroke-linecap:round;stroke-linejoin:round;stroke-miterlimit:4;stroke-dasharray:none;stroke-opacity:1"
       d="m 1955.9824,149.83884 c -22.5362,48.91591 -89.8519,18.76305 -110.0347,4.89687 -34.489,-23.69507 -76.8959,-13.53111 -114.7145,-44.8645 27.781,-20.707433 112.0611,-25.343712 112.0611,-25.343712 83.5868,-0.06153 128.3261,31.368152 112.6881,65.311342 z"
       id="path58-1-6-3-7-1-8-3-1-0-4-0-7-9-7"
       inkscape:connector-curvature="0"
       sodipodi:nodetypes="ssccs" />
    <path
       style="fill:#ffffff;stroke:#000000;stroke-width:9;stroke-linecap:round;stroke-linejoin:round;stroke-miterlimit:4;stroke-dasharray:none;stroke-opacity:1"
       d="m 2008.0626,147.30647 c 22.5362,48.91591 89.8519,18.76305 110.0347,4.89687 34.489,-23.69507 76.8959,-13.53111 114.7145,-44.8645 -27.781,-20.707429 -112.0611,-25.343708 -112.0611,-25.343708 -83.5868,-0.06153 -128.3261,31.368148 -112.6881,65.311338 z"
       id="path58-1-6-3-7-1-8-3-1-0-4-0-7-9-7-4"
       inkscape:connector-curvature="0"
       sodipodi:nodetypes="ssccs" />
    <path
       style="fill:#ffffff;stroke:#000000;stroke-width:9;stroke-linecap:round;stroke-linejoin:round;stroke-miterlimit:4;stroke-dasharray:none;stroke-opacity:1"
       d="m 1307.6739,361.96308 c 14.2523,-51.93766 85.586,-33.1732 107.7609,-22.7862 37.8932,17.74972 82.1495,22.55278 84.59,47.84517 2.4405,25.2924 -41.3829,21.69859 -70.5159,20.98907 -29.133,-0.70952 -131.7247,-10.00805 -121.835,-46.04804 z"
       id="path58-1-6-3-7-1-8-3-1-0-4-0-7-0"
       inkscape:connector-curvature="0"
       sodipodi:nodetypes="sszzs" />
    <path
       style="fill:#ffffff;stroke:#000000;stroke-width:9;stroke-linecap:round;stroke-linejoin:round;stroke-miterlimit:4;stroke-dasharray:none;stroke-opacity:1"
       d="m 1731.5857,358.42409 c -14.2523,-51.93766 -85.586,-33.1732 -107.7609,-22.7862 -37.8932,17.74972 -82.1496,22.55278 -84.59,47.84517 -2.4405,25.2924 41.3829,21.69859 70.5159,20.98907 29.133,-0.70952 131.7247,-10.00805 121.835,-46.04804 z"
       id="path58-1-6-3-7-1-8-3-1-0-4-0-7-0-4"
       inkscape:connector-curvature="0"
       sodipodi:nodetypes="sszzs" />
    <path
       style="fill:#ffffff;stroke:#000000;stroke-width:9;stroke-linecap:round;stroke-linejoin:round;stroke-miterlimit:4;stroke-dasharray:none;stroke-opacity:1"
       d="m 1024.4975,292.23705 c 14.2523,51.93766 85.586,33.1732 107.7609,22.7862 37.8932,-17.74972 82.1495,-22.55278 84.59,-47.84517 2.4405,-25.2924 -41.3829,-21.69859 -70.5159,-20.98907 -29.133,0.70952 -131.7247,10.00805 -121.835,46.04804 z"
       id="path58-1-6-3-7-1-8-3-1-0-4-0-7-0-9"
       inkscape:connector-curvature="0"
       sodipodi:nodetypes="sszzs" />
    <path
       style="fill:#ffffff;stroke:#000000;stroke-width:9;stroke-linecap:round;stroke-linejoin:round;stroke-miterlimit:4;stroke-dasharray:none;stroke-opacity:1"
       d="m 978.95476,290.0989 c -14.25232,51.93766 -85.58602,33.1732 -107.76091,22.7862 -37.8932,-17.74972 -82.14956,-22.55278 -84.58996,-47.84517 -2.4405,-25.2924 41.38286,-21.69859 70.51586,-20.98907 29.13299,0.70952 131.72471,10.00805 121.83501,46.04804 z"
       id="path58-1-6-3-7-1-8-3-1-0-4-0-7-0-9-0"
       inkscape:connector-curvature="0"
       sodipodi:nodetypes="sszzs" />
    <path
       style="fill:#ffffff;stroke:#000000;stroke-width:9;stroke-linecap:round;stroke-linejoin:round;stroke-miterlimit:4;stroke-dasharray:none;stroke-opacity:1"
       d="m 2439.864,371.70233 c -4.1298,53.69908 69.3494,60.13386 93.7295,57.84803 41.6616,-3.90621 73.755,25.61776 122.0437,16.66063 -14.1848,-31.61287 -85.5449,-76.69457 -85.5449,-76.69457 -72.9818,-40.74818 -127.3625,-35.07633 -130.2283,2.18591 z"
       id="path58-1-6-3-7-1-8-3-1-0-4-0-7-9-7-4-3"
       inkscape:connector-curvature="0"
       sodipodi:nodetypes="ssccs" />
    <path
       style="fill:#ffffff;stroke:#000000;stroke-width:9;stroke-linecap:round;stroke-linejoin:round;stroke-miterlimit:4;stroke-dasharray:none;stroke-opacity:1"
       d="m 2360.5432,373.89509 c 4.1298,53.69908 -69.3494,60.13386 -93.7295,57.84803 -41.6616,-3.90621 -73.755,25.61776 -122.0437,16.66063 14.1848,-31.61287 85.5449,-76.69457 85.5449,-76.69457 72.9818,-40.74818 127.3625,-35.07633 130.2283,2.18591 z"
       id="path58-1-6-3-7-1-8-3-1-0-4-0-7-9-7-4-3-6"
       inkscape:connector-curvature="0"
       sodipodi:nodetypes="ssccs" />
    <path
       style="fill:#ffffff;stroke:#000000;stroke-width:9;stroke-linecap:butt;stroke-linejoin:miter;stroke-miterlimit:4;stroke-dasharray:none;stroke-opacity:1"
       d="m 2729.4445,63.554715 c 51.9467,-14.218939 43.2462,-73.995782 61.6142,-90.189299 32.6669,-28.799524 40.8774,-44.267911 12.0521,-71.047863 -16.0308,-14.893343 -72.1398,27.403986 -72.1398,27.403986 -124.5397,76.1184435 -28.1803,141.128728 -1.5265,133.833176 z"
       id="path58-1-6-3-7-1-8-3-1-0-41"
       inkscape:connector-curvature="0"
       sodipodi:nodetypes="sssss" />
    <path
       style="fill:#ffffff;stroke:#000000;stroke-width:9;stroke-linecap:butt;stroke-linejoin:miter;stroke-miterlimit:4;stroke-dasharray:none;stroke-opacity:1"
       d="m 2531.1268,76.518566 c -51.9467,-14.218945 -43.2462,-73.9957859 -61.6142,-90.189304 -32.6669,-28.799523 -40.8774,-44.267911 -12.0521,-71.047863 16.0308,-14.893343 72.1398,27.403985 72.1398,27.403985 124.5397,76.118447 28.1803,141.128732 1.5265,133.833182 z"
       id="path58-1-6-3-7-1-8-3-1-0-41-9"
       inkscape:connector-curvature="0"
       sodipodi:nodetypes="sssss" />
    <path
       style="fill:#ffffff;stroke:#000000;stroke-width:9;stroke-linecap:butt;stroke-linejoin:miter;stroke-miterlimit:4;stroke-dasharray:none;stroke-opacity:1"
       d="m 3119.1257,250.6149 c -21.1427,49.53409 -79.1839,32.79523 -97.7221,48.79359 -32.9695,28.4526 -49.4097,34.48607 -72.0264,2.29059 -12.578,-17.90508 36.9482,-67.74925 36.9482,-67.74925 92.3282,-113.04711 143.6484,-8.75084 132.8003,16.66507 z"
       id="path58-1-6-3-7-1-8-3-1-0-41-9-8"
       inkscape:connector-curvature="0"
       sodipodi:nodetypes="sssss" />
    <path
       style="fill:#ffffff;stroke:#000000;stroke-width:9;stroke-linecap:butt;stroke-linejoin:miter;stroke-miterlimit:4;stroke-dasharray:none;stroke-opacity:1"
       d="m 3174.5366,243.30394 c 21.1427,49.53409 79.1839,32.79523 97.7221,48.79359 32.9695,28.4526 49.4097,34.48607 72.0264,2.29059 12.578,-17.90508 -36.9482,-67.74925 -36.9482,-67.74925 -92.3282,-113.04711 -143.6484,-8.75084 -132.8003,16.66507 z"
       id="path58-1-6-3-7-1-8-3-1-0-41-9-8-7"
       inkscape:connector-curvature="0"
       sodipodi:nodetypes="sssss" />
    <path
       style="fill:#ffffff;stroke:#000000;stroke-width:9;stroke-linecap:butt;stroke-linejoin:miter;stroke-miterlimit:4;stroke-dasharray:none;stroke-opacity:1"
       d="m 1741.1962,-146.56103 c 48.2403,-23.9482 61.4085,-7.70561 100.0149,-18.38428 12.0353,-3.32898 78.1201,47.98412 92.955,63.97828 26.0645,28.101659 -11.8186,31.255619 -104.5015,39.140909 -145.4341,12.37317 -113.2203,-72.447239 -88.4684,-84.734909 z"
       id="path58-1-6-3-7-1-8-37"
       inkscape:connector-curvature="0"
       sodipodi:nodetypes="sssss" />
    <path
       style="fill:#ffffff;stroke:#000000;stroke-width:9;stroke-linecap:butt;stroke-linejoin:miter;stroke-miterlimit:4;stroke-dasharray:none;stroke-opacity:1"
       d="m 2191.32,-141.87221 c -48.2403,-23.9482 -61.4085,-7.70561 -100.0149,-18.38428 -12.0353,-3.32898 -78.1201,47.98412 -92.955,63.978277 -26.0645,28.101661 11.8186,31.255621 104.5015,39.140911 145.4341,12.37317 113.2203,-72.447238 88.4684,-84.734908 z"
       id="path58-1-6-3-7-1-8-37-6"
       inkscape:connector-curvature="0"
       sodipodi:nodetypes="sssss" />
    <circle
       style="fill:#ffffff;stroke:#000000;stroke-width:9;stroke-linecap:round;stroke-linejoin:round;stroke-miterlimit:4;stroke-dasharray:none"
       id="path1350"
       cx="1554.4395"
       cy="-395.76263"
       r="87.664398" />
    <circle
       style="fill:#ffffff;stroke:#000000;stroke-width:9;stroke-linecap:round;stroke-linejoin:round;stroke-miterlimit:4;stroke-dasharray:none"
       id="path1350-6"
       cx="1781.0841"
       cy="-382.93365"
       r="87.664398" />
    <ellipse
       style="fill:#ffffff;stroke:#000000;stroke-width:9;stroke-linecap:round;stroke-linejoin:round;stroke-miterlimit:4;stroke-dasharray:none"
       id="path1350-6-2"
       cx="4261.9116"
       cy="46.965427"
       rx="87.664398"
       ry="48.073219" />
    <path
       style="fill:#ffffff;stroke:#000000;stroke-width:9;stroke-linecap:round;stroke-linejoin:round;stroke-miterlimit:4;stroke-dasharray:none"
       d="m 4640.868,158.01445 c 0,26.55011 -39.2487,48.07322 -87.6644,48.07322 -48.4157,0 -87.6644,-21.52311 -87.6644,-48.07322 0,0 39.2487,-48.07322 87.6644,-48.07322 48.4157,0 87.6644,48.07322 87.6644,48.07322 z"
       id="path1350-6-2-3"
       inkscape:connector-curvature="0"
       sodipodi:nodetypes="cscsc" />
    <path
       style="fill:#ffffff;stroke:#000000;stroke-width:9;stroke-linecap:round;stroke-linejoin:round;stroke-miterlimit:4;stroke-dasharray:none"
       d="m 4349.0096,224.30269 c 0,-26.55011 -39.2487,-48.07322 -87.6644,-48.07322 -48.4157,0 -87.6644,21.52311 -87.6644,48.07322 0,0 39.2487,48.07322 87.6644,48.07322 48.4157,0 87.6644,-48.07322 87.6644,-48.07322 z"
       id="path1350-6-2-3-8"
       inkscape:connector-curvature="0"
       sodipodi:nodetypes="cscsc" />
    <path
       sodipodi:type="star"
       style="fill:#ffffff;stroke:#000000;stroke-width:9;stroke-linecap:round;stroke-linejoin:round;stroke-miterlimit:4;stroke-dasharray:none"
       id="path1413"
       sodipodi:sides="5"
       sodipodi:cx="3553.6155"
       sodipodi:cy="-571.09143"
       sodipodi:r1="834.97668"
       sodipodi:r2="417.48834"
       sodipodi:arg1="-2.8797933"
       sodipodi:arg2="-2.2514747"
       inkscape:flatsided="false"
       inkscape:rounded="0"
       inkscape:randomized="0"
       d="m 2747.0899,-787.19927 543.7917,-108.34155 219.0345,-509.38298 271.0798,483.69719 552.1375,50.90627 -376.2552,407.28286 122.2052,540.84479 -503.6183,-231.98255 -476.6105,283.3542 65.0019,-550.65596 z"
       inkscape:transform-center-x="13.503872"
       inkscape:transform-center-y="-66.780995" />
    <path
       style="fill:#ffffff;stroke:#000000;stroke-width:9;stroke-linecap:round;stroke-linejoin:round;stroke-miterlimit:4;stroke-dasharray:none"
       inkscape:transform-center-x="6.1686645e-005"
       inkscape:transform-center-y="50.059309"
       d="m 4896.3775,-589.95526 -154.0667,-312.17316 -344.5035,-50.05927 249.285,-242.99291 -58.8482,-343.1115 308.1334,161.9953 308.1333,-161.9953 -58.8483,343.1115 249.2851,242.99288 -344.5035,50.05931 z"
       id="path1416" />
    <path
       style="fill:#ffffff;stroke:#000000;stroke-width:9;stroke-linecap:round;stroke-linejoin:round;stroke-miterlimit:4;stroke-dasharray:none"
       id="path1419"
       sodipodi:type="arc"
       sodipodi:cx="6126.8862"
       sodipodi:cy="-753.90369"
       sodipodi:rx="242.68073"
       sodipodi:ry="242.68073"
       sodipodi:start="0"
       sodipodi:end="3.1415927"
       d="m 6369.567,-753.90369 a 242.68073,242.68073 0 0 1 -121.3404,210.16768 242.68073,242.68073 0 0 1 -242.6807,-1e-5 242.68073,242.68073 0 0 1 -121.3404,-210.16768"
       sodipodi:open="true" />
    <path
       id="path1419-0-8"
       style="fill:#ffffff;stroke:#000000;stroke-width:9;stroke-linecap:round;stroke-linejoin:round;stroke-miterlimit:4;stroke-dasharray:none"
       d="m 7131.8058,-615.18474 c 0,77.95581 -83.3595,329.57948 -83.2784,451.25758 -97.9964,-47.2188 -58.1661,-146.39597 -95.5204,-189.33344 -37.3543,42.93747 2.476,142.11463 -95.5204,189.33344 0.081,-121.67812 -83.2785,-373.30178 -83.2785,-451.25759"
       inkscape:connector-curvature="0"
       sodipodi:nodetypes="ccccc" />
    <path
       id="path1419-0-8-2-3"
       style="fill:#ffffff;stroke:#000000;stroke-width:9;stroke-linecap:round;stroke-linejoin:round;stroke-miterlimit:4;stroke-dasharray:none"
       d="m 7466.0286,-596.63211 c 0,77.95581 -57.7017,132.86912 32.182,442.70496 -97.9964,-47.2188 -77.8209,-88.18765 -106.097,-135.66082 -28.276,47.47317 -8.1005,88.44202 -106.0969,135.66081 89.8837,-309.83584 32.182,-364.74915 32.182,-442.70496"
       inkscape:connector-curvature="0"
       sodipodi:nodetypes="ccccc" />
    <path
       style="fill:#ffffff;stroke:#000000;stroke-width:9;stroke-linecap:round;stroke-linejoin:round;stroke-miterlimit:4;stroke-dasharray:none"
       d="m 6379.129,-364.66142 c -64.0008,34.63716 -102.9948,52.47783 -141.5079,87.9322 -136.3403,125.51201 -240.7618,131.90351 -315.6531,-53.37547"
       id="path1419-6"
       inkscape:connector-curvature="0"
       sodipodi:nodetypes="csc" />
    <path
       id="path1419-6-6"
       style="fill:#ffffff;stroke:#000000;stroke-width:9;stroke-linecap:round;stroke-linejoin:round;stroke-miterlimit:4;stroke-dasharray:none"
       d="m 6458.809,-164.49517 c 21.3331,38.60714 -0.2512,58.53164 -14.9517,87.258836 -52.0413,101.69696 -39.9835,181.124294 86.8151,181.124294 126.7986,0 138.8564,-79.427334 86.8151,-181.124294 -14.7005,-28.727196 -36.2848,-48.651706 -14.9517,-87.258836"
       inkscape:connector-curvature="0"
       sodipodi:nodetypes="cczcc" />
    <circle
       style="fill:#1a1a1a;stroke-width:9;stroke-miterlimit:4;stroke-dasharray:none"
       id="path892-8"
       cx="5678.9429"
       cy="416.73676"
       r="32.072342" />
    <g
       id="g1649"
       transform="translate(647.86132,-164.63802)">
      <path
         sodipodi:open="true"
         d="m 5586.1298,151.50258 a 119.08245,242.68073 0 0 1 -59.5412,210.16767 119.08245,242.68073 0 0 1 -119.0825,0 119.08245,242.68073 0 0 1 -59.5412,-210.16768"
         sodipodi:end="3.1415927"
         sodipodi:start="0"
         sodipodi:ry="242.68073"
         sodipodi:rx="119.08245"
         sodipodi:cy="151.50258"
         sodipodi:cx="5467.0474"
         sodipodi:type="arc"
         id="path1419-9"
         style="fill:#ffffff;stroke:#000000;stroke-width:9;stroke-linecap:round;stroke-linejoin:round;stroke-miterlimit:4;stroke-dasharray:none" />
      <ellipse
         ry="90.604134"
         rx="93.355507"
         cy="315.25302"
         cx="5467.0474"
         id="path1545"
         style="fill:#ffffff;stroke:#000000;stroke-width:9;stroke-linecap:round;stroke-linejoin:round;stroke-miterlimit:4;stroke-dasharray:none" />
      <path
         inkscape:connector-curvature="0"
         id="path1350-6-2-3-4"
         d="m 5437.1809,325.42974 c -35.1549,14.47409 -57.7979,56.0219 -57.7979,56.0219 0,20.5573 23.5325,38.09799 56.629,44.97038 6.8175,15.37901 16.5711,30.91027 28.1662,30.91027 11.4393,0 22.5108,-15.11663 30.7433,-30.29014 34.7498,-6.38659 59.7903,-24.3844 59.7903,-45.59051 0,0 -27.4458,-36.90964 -62.4433,-53.27065 -7.8825,13.44289 -17.8379,25.58552 -28.0903,25.58552 -10.9479,0 -20.2538,-13.84615 -26.9973,-28.33677 z"
         style="fill:#ffffff;stroke:#000000;stroke-width:9;stroke-linecap:round;stroke-linejoin:round;stroke-miterlimit:4;stroke-dasharray:none" />
      <g
         transform="translate(10.244629,2.5802047)"
         id="g1641">
        <ellipse
           style="fill:#1a1a1a;stroke-width:10.71214199;stroke-miterlimit:4;stroke-dasharray:none"
           id="path892-3-04"
           cx="5423.1235"
           cy="379.72946"
           rx="21.733582"
           ry="30.78924" />
        <ellipse
           style="fill:#1a1a1a;fill-opacity:1;stroke-width:10.71214199;stroke-miterlimit:4;stroke-dasharray:none"
           id="path892-3-04-1"
           cx="5490.4819"
           cy="379.72943"
           rx="21.733582"
           ry="30.78924" />
      </g>
    </g>
    <g
       id="g1649-3"
       transform="translate(1449.699,-57.070979)">
      <path
         sodipodi:open="true"
         d="m 5586.1298,151.50258 a 119.08245,242.68073 0 0 1 -59.5412,210.16767 119.08245,242.68073 0 0 1 -119.0825,0 119.08245,242.68073 0 0 1 -59.5412,-210.16768"
         sodipodi:end="3.1415927"
         sodipodi:start="0"
         sodipodi:ry="242.68073"
         sodipodi:rx="119.08245"
         sodipodi:cy="151.50258"
         sodipodi:cx="5467.0474"
         sodipodi:type="arc"
         id="path1419-9-7"
         style="fill:#ffffff;stroke:#000000;stroke-width:9;stroke-linecap:round;stroke-linejoin:round;stroke-miterlimit:4;stroke-dasharray:none" />
      <ellipse
         ry="90.604134"
         rx="93.355507"
         cy="315.25302"
         cx="5467.0474"
         id="path1545-7"
         style="fill:#ffffff;stroke:#000000;stroke-width:9;stroke-linecap:round;stroke-linejoin:round;stroke-miterlimit:4;stroke-dasharray:none" />
    </g>
    <path
       inkscape:connector-curvature="0"
       id="path1350-6-2-3-4-4"
       d="m 7230.3,203.83438 c -35.1549,14.47409 -57.7979,56.0219 -57.7979,56.0219 0,20.5573 23.5325,38.09799 56.629,44.97038 6.8175,15.37901 16.5711,30.91027 28.1662,30.91027 11.4393,0 22.5108,-15.11663 30.7433,-30.29014 34.7498,-6.38659 59.7903,-24.3844 59.7903,-45.59051 0,0 -27.4458,-36.90964 -62.4433,-53.27065 -7.8825,13.44289 -17.8379,25.58552 -28.0903,25.58552 -10.9479,0 -20.2538,-13.84615 -26.9973,-28.33677 z"
       style="fill:#ffffff;stroke:#000000;stroke-width:9;stroke-linecap:round;stroke-linejoin:round;stroke-miterlimit:4;stroke-dasharray:none" />
    <path
       style="fill:#ffffff;stroke:#000000;stroke-width:9;stroke-linecap:round;stroke-linejoin:round;stroke-miterlimit:4;stroke-dasharray:none;stroke-opacity:1"
       d="m 6153.0471,851.53317 c -4.1298,-53.69908 45.9149,-53.33035 70.295,-51.04446 26.3168,2.46748 35.0359,14.22331 112.06,-8.51701 44.9111,-13.25937 24.9508,-91.53171 24.9508,-91.53171 0,0 56.2229,67.20769 23.2899,98.56034 -51.1524,48.69784 -71.8918,24.14121 -127.5817,54.71875 -55.6898,30.57753 -100.1482,35.07633 -103.014,-2.18591 z"
       id="path58-1-6-3-7-1-8-3-1-0-4-0-7-9-7-4-3-3"
       inkscape:connector-curvature="0"
       sodipodi:nodetypes="ssscszs" />
    <path
       style="fill:#ffffff;stroke:#000000;stroke-width:9;stroke-linecap:round;stroke-linejoin:round;stroke-miterlimit:4;stroke-dasharray:none;stroke-opacity:1"
       d="m 6121.0989,851.53316 c 4.1298,-53.69907 -45.9149,-53.33035 -70.295,-51.04445 -26.3168,2.46748 -35.0359,14.22331 -112.06,-8.51701 -44.9111,-13.25937 -24.9508,-91.53171 -24.9508,-91.53171 0,0 -56.2229,67.20769 -23.2899,98.56034 51.1524,48.69784 71.8918,24.14121 127.5817,54.71875 55.6898,30.57753 100.1482,35.07633 103.014,-2.18592 z"
       id="path58-1-6-3-7-1-8-3-1-0-4-0-7-9-7-4-3-3-0"
       inkscape:connector-curvature="0"
       sodipodi:nodetypes="ssscszs" />
    <path
       style="fill:#ffffff;stroke:#000000;stroke-width:9;stroke-linecap:round;stroke-linejoin:round;stroke-miterlimit:4;stroke-dasharray:none;stroke-opacity:1"
       d="m 5346.9502,849.0603 c -4.1298,-53.69907 45.9148,-53.33035 70.295,-51.04445 26.3168,2.46748 35.0358,14.22331 112.0599,-8.51701 44.9112,-13.25937 24.9509,-91.53171 24.9509,-91.53171 0,0 56.2229,81.64024 23.2899,112.99289 -51.1524,48.69784 -111.9822,31.62476 -127.5818,40.2862 -15.5996,8.66144 -100.1481,35.07633 -103.0139,-2.18592 z"
       id="path58-1-6-3-7-1-8-3-1-0-4-0-7-9-7-4-3-3-3"
       inkscape:connector-curvature="0"
       sodipodi:nodetypes="ssscszs" />
    <path
       style="fill:#ffffff;stroke:#000000;stroke-width:9;stroke-linecap:round;stroke-linejoin:round;stroke-miterlimit:4;stroke-dasharray:none;stroke-opacity:1"
       d="m 5294.6878,849.0603 c 4.1298,-53.69908 -45.9148,-53.33035 -70.295,-51.04446 -26.3168,2.46748 -35.0358,14.22331 -112.0599,-8.517 -44.9112,-13.25937 -24.9509,-91.53171 -24.9509,-91.53171 0,0 -56.2229,81.64024 -23.2899,112.99289 51.1524,48.69784 111.9822,31.62475 127.5818,40.28619 15.5996,8.66144 100.1481,35.07634 103.0139,-2.18591 z"
       id="path58-1-6-3-7-1-8-3-1-0-4-0-7-9-7-4-3-3-3-9"
       inkscape:connector-curvature="0"
       sodipodi:nodetypes="ssscszs" />
    <path
       style="fill:#ffffff;stroke:#000000;stroke-width:9;stroke-linecap:round;stroke-linejoin:round;stroke-miterlimit:4;stroke-dasharray:none;stroke-opacity:1"
       d="m 5318.0677,1135.592 c -4.1298,53.6991 45.9148,53.3303 70.295,51.0445 26.3168,-2.4675 35.0358,-14.2234 112.0599,8.517 44.9112,13.2593 24.9509,91.5317 24.9509,91.5317 0,0 56.2229,-81.6403 23.2899,-112.9929 -51.1524,-48.6979 -111.9822,-31.6248 -127.5818,-40.2862 -15.5996,-8.6615 -100.1481,-35.0764 -103.0139,2.1859 z"
       id="path58-1-6-3-7-1-8-3-1-0-4-0-7-9-7-4-3-3-3-6"
       inkscape:connector-curvature="0"
       sodipodi:nodetypes="ssscszs" />
    <path
       style="fill:#ffffff;stroke:#000000;stroke-width:9;stroke-linecap:round;stroke-linejoin:round;stroke-miterlimit:4;stroke-dasharray:none;stroke-opacity:1"
       d="m 5265.8053,1135.592 c 4.1298,53.6991 -45.9148,53.3303 -70.295,51.0445 -26.3168,-2.4675 -35.0358,-14.2233 -112.0599,8.517 -44.9112,13.2593 -24.9509,91.5317 -24.9509,91.5317 0,0 -56.2229,-81.6403 -23.2899,-112.9929 51.1524,-48.6979 111.9822,-31.6248 127.5818,-40.2862 15.5996,-8.6614 100.1481,-35.0764 103.0139,2.1859 z"
       id="path58-1-6-3-7-1-8-3-1-0-4-0-7-9-7-4-3-3-3-9-0"
       inkscape:connector-curvature="0"
       sodipodi:nodetypes="ssscszs" />
    <path
       style="fill:#ffffff;stroke:#000000;stroke-width:9;stroke-linecap:round;stroke-linejoin:round;stroke-miterlimit:4;stroke-dasharray:none;stroke-opacity:1"
       d="m 6545.0878,1066.3494 c 45.6356,-28.6012 68.5555,15.8879 77.8563,38.5399 10.0394,24.4514 3.6789,37.6335 59.5958,95.2801 32.6039,33.6127 92.6474,-20.4221 92.6474,-20.4221 0,0 -46.1815,87.7121 -89.2441,73.1115 -66.8863,-22.6779 -80.0233,-84.4773 -94.9397,-94.2685 -14.9167,-9.791 -77.5828,-72.3942 -45.9157,-92.2409 z"
       id="path58-1-6-3-7-1-8-3-1-0-4-0-7-9-7-4-3-3-3-6-8"
       inkscape:connector-curvature="0"
       sodipodi:nodetypes="ssscszs" />
    <path
       style="fill:#ffffff;stroke:#000000;stroke-width:9;stroke-linecap:round;stroke-linejoin:round;stroke-miterlimit:4;stroke-dasharray:none;stroke-opacity:1"
       d="m 6953.6202,1018.8524 c -32.0201,-43.30533 10.5782,-69.57285 32.4493,-80.58516 23.6086,-11.88685 65.9662,37.28819 119.1502,-22.88911 31.0105,-35.08802 -38.0575,-154.30622 -38.0575,-154.30622 0,0 101.5819,120.19867 90.3302,164.25508 -17.4763,68.42985 -48.6028,43.18296 -87.4581,55.78316 -38.8553,12.6002 -94.1949,67.79235 -116.4141,37.74225 z"
       id="path58-1-6-3-7-1-8-3-1-0-4-0-7-9-7-4-3-3-3-9-0-0"
       inkscape:connector-curvature="0"
       sodipodi:nodetypes="ssscszs" />
    <path
       style="fill:#ffffff;stroke:#000000;stroke-width:9;stroke-linecap:round;stroke-linejoin:round;stroke-miterlimit:4;stroke-dasharray:none;stroke-opacity:1"
       d="m 6480.2412,1066.3494 c -45.6356,-28.6012 -68.5555,15.8879 -77.8563,38.5399 -10.0394,24.4514 -3.6789,37.6335 -59.5958,95.2801 -32.6039,33.6127 -92.6474,-20.4221 -92.6474,-20.4221 0,0 46.1815,87.7121 89.2441,73.1115 66.8863,-22.6779 80.0233,-84.4773 94.9397,-94.2685 14.9167,-9.791 77.5828,-72.3942 45.9157,-92.2409 z"
       id="path58-1-6-3-7-1-8-3-1-0-4-0-7-9-7-4-3-3-3-6-8-1"
       inkscape:connector-curvature="0"
       sodipodi:nodetypes="ssscszs" />
    <path
       style="fill:#ffffff;stroke:#000000;stroke-width:9;stroke-linecap:round;stroke-linejoin:round;stroke-miterlimit:4;stroke-dasharray:none;stroke-opacity:1"
       d="m 6889.5607,1018.8524 c 32.0201,-43.30528 -10.5782,-69.57288 -32.4493,-80.58515 -23.6086,-11.88685 -65.9662,37.28817 -119.1502,-22.8891 -31.0105,-35.08803 38.0575,-154.30623 38.0575,-154.30623 0,0 -101.5819,120.19867 -90.3302,164.25508 17.4763,68.42982 48.6028,43.18292 87.4581,55.78312 38.8553,12.6002 94.1949,67.79228 116.4141,37.74228 z"
       id="path58-1-6-3-7-1-8-3-1-0-4-0-7-9-7-4-3-3-3-9-0-0-2"
       inkscape:connector-curvature="0"
       sodipodi:nodetypes="ssscszs" />
  </g>
</svg>
